{
    "Aarakocra": ["Aera", "Aial", "Aur", "Deekek", "Errk", "Heehk", "Ikki", "Kleeck", "Oorr", "Ouss", "Quaf", "Quierk", "Salleek", "Urreek", "Zeed"],
    "Bugbear": {
        "Female": ["An\"hek", "Gretru", "Lungra", "Sept", "Um\"ra", "Zel"],
        "Male": ["Bao\"or\"et", "Cretin", "Gregek", "Kugruet", "Malka\"vec", "Thimdul"]
    },
    "Centaur": {
        "Female": ["Carystus", "Cybel", "Dawn", "Endeis", "Euippe", "Mae", "Hippe", "Hylonome", "Melanippe", "Ocyrhoe"],
        "Male": ["Apis", "Bane", "Centaurus", "Chiron", "Cloudbirth", "Cyllerus", "Dantares", "Elatus", "Eurytion", "Firenze", "Gadfort", "Glenstorm", "Hylaeus", "Ironhoof", "Jaro", "Kashing", "Latreus", "Magorian", "Nessus", "Oreus", "Pai", "Pelle", "Pholus", "Polkan", "Rainstone", "Rhaecus", "Ronan", "Roonwit", "Sajacks", "Suncloud", "Vankar", "Varios", "Windmane"]
    },
    "Changeling": {
        "Nickname": ["Bin", "Cas", "Dox", "Fie", "Hars", "Jin", "Lam", "Mas", "Nix", "Ot", "Paik", "Ruz", "Sim", "Toox", "Vil", "Yog"]
    },
    "Deep Gnome": {
        "Female": ["Beliss", "Durthee", "Fricknarti", "Ivridda", "Krivi", "Lulthiss", "Nalvarti", "Schnella", "Thulmarra", "Wirsidda"],
        "Male": ["Belwar", "Brickers", "Durthmeck", "Firble", "Krieger", "Kronthud", "Schneltheck", "Schnicktick", "Thulwar", "Walschud"],
        "Family": ["Crystalfist", "Gemcutter", "Ironfoot", "Rockhewer", "Seamfinder", "Stonecutter"]
    },
    "Dragonborn": {
        "Female": ["Akra", "Aasathra", "Antrara", "Arava", "Biri", "Blendaeth", "Burana", "Chassath", "Daar", "Dentratha", "Doudra", "Driindar", "Eggren", "Farideh", "Findex", "Furrele", "Gesrethe", "Gilkass", "Harann", "Havilar", "Hethress", "Hillanot", "Jaxi", "Jezean", "Jheri", "Kadana", "Kava", "Korinn", "Megren", "Mijira", "Mishann", "Nala", "Nuthra", "Perra", "Pogranix", "Pyxrin", "Quespa", "Raiann", "Rezena", "Ruloth", "Saphara", "Savaran", "Sora", "Surina", "Synthrin", "Tatyan", "Thava", "Uadjit", "Vezera", "Zykrof"],
        "Male": ["Adrex", "Arjhan", "Azzakh", "Balasar", "Baradad", "Bharash", "Bidreked", "Dadalan", "Dazzazn", "Direcris", "Donaar", "Fax", "Gargax", "Ghesh", "Gorbundus", "Greethen", "Heskan", "Hirrathak", "Ildrex", "Kaladan", "Kerkad", "Kiirith", "Kriv", "Maagog", "Medrash", "Mehen", "Mozikth", "Mreksh", "Mugrunden", "Nadarr", "Nithther", "Norkruuth", "Nykkan", "Pandjed", "Patrin", "Pijjirik", "Quarethon", "Rathkran", "Rhogar", "Rivaan", "Sethrekar", "Shamash", "Shedinn", "Srorthen", "Tarhun", "Torinn", "Trynnicus", "Valorean", "Vrondiss", "Zedaar"],
        "Family": ["Akambherylliax", "Argenthrixus", "Baharoosh", "Beryntolthropal", "Bhenkumbyrznaax", "Caavylteradyn", "Chumbyxirinnish", "Clethtinthiallor", "Daardendrian", "Delmirev", "Dhyrktelonis", "Ebynichtomonis", "Esstyrlynn", "Fharngnarthnost", "Ghaallixirn", "Grrrmmballhyst", "Gygazzylyshrift", "Hashphronyxadyn", "Hshhsstoroth", "Imbixtellrhyst", "Jerynomonis", "Jharthraxyn", "Kerrhylon", "Kimbatuul", "Lhamboldennish", "Linxakasendalor", "Mohradyllion", "Mystan", "Nemmonis", "Norixius", "Ophinshtalajiir", "Orexijandilin", "Pfaphnyrennish", "Phrahdrandon", "Pyraxtallinost", "Qyxpahrgh", "Raghthroknaar", "Shestendeliath", "Skaarzborroosh", "Sumnarghthrysh", "Tiammanthyllish", "Turnuroth", "Umbyrphrael", "Vangdondalor", "Verthisathurgiesh", "Wivvyrholdalphiax", "Wystongjiir", "Xephyrbahnor", "Yarjerit", "Zzzxaaxthroth"]
    },
    "Dwarf": {
        "Female": ["Anbera", "Artin", "Audhild", "Balifra", "Barbena", "Bardryn", "Bolhild", "Dagnal", "Dariff", "Delre", "Diesa", "Eldeth", "Eridred", "Falkrunn", "Fallthra", "Finellen", "Gillydd", "Gunnloda", "Gurdis", "Helgret", "Helja", "Hlin", "Ilde", "Jarana", "Kathra", "Kilia", "Kristryd", "Liftrasa", "Marastyr", "Mardred", "Morana", "Nalaed", "Nora", "Nurkara", "Oriff", "Ovina", "Riswynn", "Sannl", "Therlin", "Thodris", "Torbera", "Tordrid", "Torgga", "Urshar", "Valida", "Vistra", "Vonana", "Werydd", "Whurdred", "Yurgunn"],
        "Male": ["Adrik", "Alberich", "Baern", "Barendd", "Beloril", "Brottor", "Dain", "Dalgal", "Darrak", "Delg", "Duergath", "Dworic", "Eberk", "Einkil", "Elaim", "Erias", "Fallond", "Fargrim", "Gardain", "Gilthur", "Gimgen", "Gimurt", "Harbek", "Kildrak", "Kilvar", "Morgran", "Morkral", "Nalral", "Nordak", "Nuraval", "Oloric", "Olunt", "Orsik", "Oskar", "Rangrim", "Reirak", "Rurik", "Taklinn", "Thoradin", "Thorin", "Thradal", "Tordek", "Traubon", "Travok", "Ulfgar", "Uraim", "Veit", "Vonbin", "Vondal", "Whurbin"],
        "Family": ["Aranore", "Balderk", "Battlehammer", "Bigtoe", "Bloodkith", "Bofdann", "Brawnanvil", "Brazzik", "Broodfist", "Burrowfound", "Caebrek", "Daerdahk", "Dankil", "Daraln", "Deepdelver", "Durthane", "Eversharp", "Fallack", "Fireforge", "Foamtankard", "Frostbeard", "Glanhig", "Goblinbane", "Goldfinder", "Gorunn", "Graybeard", "Hammerstone", "Helcral", "Holderhek", "Ironfist", "Loderr", "Lutgehr", "Morigak", "Orcfoe", "Rakankrak", "Ruby-Eye", "Rumnaheim", "Silveraxe", "Silverstone", "Steelfist", "Stoutale", "Strakeln", "Strongheart", "Thrahak", "Torevir", "Torunn", "Trollbleeder", "Trueanvil", "Trueblood", "Ungart"]
    },
    "Half-Elf": {
        "Female": ["Adrie", "Ahinar", "Althaea", "Anastrianna", "Andraste", "Antinua", "Arara", "Baelitae", "Bethrynna", "Birel", "Caelynn", "Chaedi", "Claira", "Dara", "Drusilia", "Elama", "Enna", "Faral", "Felosial", "Hatae", "Ielenia", "Ilanis", "Irann", "Jarsali", "Jelenneth", "Keyleth", "Leshanna", "Lia", "Maiathah", "Malquis", "Meriele", "Mialee", "Myathethin", "Naivara", "Quelenna", "Quillathe", "Ridaro", "Sariel", "Shanairra", "Shava", "Silaqui", "Summes", "Theirastra", "Thiala", "Tiaathque", "Traulam", "Vadania", "Valanthe", "Valna", "Xanaphia"],
        "Male": ["Adran", "Aelar", "Aerdeth", "Ahvain", "Aramil", "Arannis", "Aust", "Azaki", "Beiro", "Berrian", "Caeldrim", "Carric", "Dayereth", "Dreali", "Efferil", "Eiravel", "Enialis", "Erdan", "Erevan", "Fivin", "Galinndan", "Gennal", "Hadarai", "Halimath", "Heian", "Himo", "Immeral", "Ivellios", "Korfel", "Lamlis", "Laucian", "Lucan", "Mindartis", "Naal", "Nutae", "Paelias", "Peren", "Quarion", "Riardon", "Rolen", "Soveliss", "Suhnae", "Thamior", "Tharivol", "Theren", "Theriatis", "Thervan", "Uthemar", "Vanuath", "Varis"]
    },
    "Elf": {
        "Female": ["Adrie", "Ahinar", "Althaea", "Anastrianna", "Andraste", "Antinua", "Arara", "Baelitae", "Bethrynna", "Birel", "Caelynn", "Chaedi", "Claira", "Dara", "Drusilia", "Elama", "Enna", "Faral", "Felosial", "Hatae", "Ielenia", "Ilanis", "Irann", "Jarsali", "Jelenneth", "Keyleth", "Leshanna", "Lia", "Maiathah", "Malquis", "Meriele", "Mialee", "Myathethin", "Naivara", "Quelenna", "Quillathe", "Ridaro", "Sariel", "Shanairra", "Shava", "Silaqui", "Summes", "Theirastra", "Thiala", "Tiaathque", "Traulam", "Vadania", "Valanthe", "Valna", "Xanaphia"],
        "Male": ["Adran", "Aelar", "Aerdeth", "Ahvain", "Aramil", "Arannis", "Aust", "Azaki", "Beiro", "Berrian", "Caeldrim", "Carric", "Dayereth", "Dreali", "Efferil", "Eiravel", "Enialis", "Erdan", "Erevan", "Fivin", "Galinndan", "Gennal", "Hadarai", "Halimath", "Heian", "Himo", "Immeral", "Ivellios", "Korfel", "Lamlis", "Laucian", "Lucan", "Mindartis", "Naal", "Nutae", "Paelias", "Peren", "Quarion", "Riardon", "Rolen", "Soveliss", "Suhnae", "Thamior", "Tharivol", "Theren", "Theriatis", "Thervan", "Uthemar", "Vanuath", "Varis"]
    },
    "Genasi": {
        "Female": ["Aaryl", "B\"noor", "Fenelzi\"ir", "Jen\"lig", "Pah\"zel", "Quorstyl", "Sirruth", "Vaira", "Yessune", "Zar\"ryth"],
        "Male": ["Elirdain", "Gaath", "Ja\"adoc", "Kar\"i\"nas", "Lykus", "Quith", "Ris\"a\"an", "Tropos", "Viran", "Xamodas"]
    },
    "Githyanki": {
        "Female": ["Aaryl", "B\"noor", "Fenelzi\"ir", "Jen\"lig", "Pah\"zel", "Quorstyl", "Sirruth", "Vaira", "Yessune", "Zar\"ryth"],
        "Male": ["Elirdain", "Gaath", "Ja\"adoc", "Kar\"i\"nas", "Lykus", "Quith", "Ris\"a\"an", "Tropos", "Viran", "Xamodas"]
    },
    "Gith": {
        "Female": ["Adaka", "Adeya", "Ella", "Ezhelya", "Immilzin", "Izera", "Janara", "Loraya", "Uweya", "Vithka"],
        "Male": ["Dak", "Duurth", "Ferzth", "Greth", "Hurm", "Kalla", "Muurg", "Nurm", "Shrakk", "Xorm"]
    },
    "Githzerai": {
        "Female": ["Adaka", "Adeya", "Ella", "Ezhelya", "Immilzin", "Izera", "Janara", "Loraya", "Uweya", "Vithka"],
        "Male": ["Dak", "Duurth", "Ferzth", "Greth", "Hurm", "Kalla", "Muurg", "Nurm", "Shrakk", "Xorm"]
    },
    "Gnome": {
        "Female": ["Abalaba", "Bimpnottin", "Breena", "Buvvie", "Callybon", "Caramip", "Carlin", "Cumpen", "Dalaba", "Donella", "Duvamil", "Ella", "Ellyjoybell", "Ellywick", "Enidda", "Lilli", "Loopmottin", "Lorilla", "Luthra", "Mardnab", "Meena", "Menny", "Mumpena", "Nissa", "Numba", "Nyx", "Oda", "Oppah", "Orla", "Panana", "Pyntle", "Quilla", "Ranala", "Reddlepop", "Roywyn", "Salanop", "Shamil", "Siffress", "Symma", "Tana", "Tenena", "Tervaround", "Tippletoe", "Ulla", "Unvera", "Veloptima", "Virra", "Waywocket", "Yebe", "Zanna"],
        "Male": ["Alston", "Alvyn", "Anverth", "Arumawann", "Bilbron", "Boddynock", "Brocc", "Burgell", "Cockaby", "Crampernap", "Dabbledob", "Delebean", "Dimble", "Eberdeb", "Eldon", "Erky", "Fablen", "Fibblestib", "Fonkin", "Frouse", "Frug", "Gerbo", "Gimble", "Glim", "Igden", "Jabble", "Jebeddo", "Kellen", "Kipper", "Namfoodle", "Oppleby", "Orryn", "Paggen", "Pallabar", "Pog", "Qualen", "Ribbles", "Rimple", "Roondar", "Sapply", "Seebo", "Senteq", "Sindri", "Umpen", "Warryn", "Wiggens", "Wobbles", "Wrenn", "Zaffrab", "Zook"],
        "Family": ["Albaratie", "Bafflestone", "Beren", "Boondiggles", "Cobblelob", "Daergel", "Dunben", "Fabblestabble", "Fapplestamp", "Fiddlefen", "Folkor", "Garrick", "Gimlen", "Glittergem", "Gobblefirn", "Gummen", "Horcusporcus", "Humplebumple", "Ironhide", "Leffery", "Lingenhall", "Loofollue", "Maekkelferce", "Miggledy", "Munggen", "Murnig", "Musgraben", "Nackle", "Ningel", "Nopenstallen", "Nucklestamp", "Offund", "Oomtrowl", "Pilwicken", "Pingun", "Quillsharpener", "Raulnor", "Reese", "Rofferton", "Scheppen", "Shadowcloak", "Silverthread", "Sympony", "Tarkelby", "Timbers", "Turen", "Umbodoben", "Waggletop", "Welber", "Wildwander"]
    },
    "Goblin": {
        "Female": ["Vuura", "Ciisa", "Jaaraas Larr", "Flara", "Catlona", "Silonda", "Hillin", "Jebi", "Sazza"],
        "Male": ["Chetiin", "Griz", "Gobber", "Toby", "Berk", "Btas", "Dnuzeg", "Dten", "Fooraak", "Gras", "Keevan", "Nbus", "Noregz", "Rath", "Sgaz", "Vuus", "Xoganm"]
    },
    "Goliath": {
        "Nickname": ["Bearkiller", "Dawncaller", "Fearless", "Flint-finder", "Horncarver", "Keeneye", "Lonehunter", "Long-leaper", "Rootsmasher", "Skywatcher", "Steadyhand ", "Threadtwister", "Twice-Orphaned", "Twistedlimb ", "Wordpainter"],
        "Family": ["Anakalathai", "Elanithino", "Gathakanathi", "Kalagiano", "Katho-Olavi", "Kolae-Gileana", "Ogolakanu", "Thuliaga", "Thunukalathi", "Vaimei-Laga"]
    },
    "Grung": {
        "Nickname": ["Gahg", "Sook", "Pasht", "Slur", "Slark", "Mog", "Lurt", "Hat", "Pip", "Narg", "Galf", "Nak", "Toog", "Beb", "Snurk", "Pat", "Lib", "Rug", "Ran", "Ja", "Jig", "Erg", "Hen", "Nin", "Mahl", "Zoog"]
    },
    "Halfling": {
        "Female": ["Alain", "Andry", "Anne", "Bella", "Blossom", "Bree", "Callie", "Chenna", "Cora", "Dee", "Dell", "Eida", "Eran", "Euphemia", "Georgina", "Gynnie", "Harriet", "Jasmine", "Jillian", "Jo", "Kithri", "Lavinia", "Lidda", "Maegan", "Marigold", "Merla", "Myria", "Nedda", "Nikki", "Nora", "Olivia", "Paela", "Pearl", "Pennie", "Philomena", "Portia", "Robbie", "Rose", "Saral", "Seraphina", "Shaena", "Stacee", "Tawna", "Thea", "Trym", "Tyna", "Vani", "Verna", "Wella", "Willow"],
        "Male": ["Alton", "Ander", "Bernie", "Bobbin", "Cade", "Callus", "Corrin", "Dannad", "Danniel", "Eddie", "Egart", "Eldon", "Errich", "Fildo", "Finnan", "Franklin", "Garret", "Garth", "Gilbert", "Gob", "Harol", "Igor", "Jasper", "Keith", "Kevin", "Lazam", "Lerry", "Lindal", "Lyle", "Merric", "Mican", "Milo", "Morrin", "Nebin", "Nevil", "Osborn", "Ostran", "Oswalt", "Perrin", "Poppy", "Reed", "Roscoe", "Sam", "Shardon", "Tye", "Ulmo", "Wellby", "Wendel", "Wenner", "Wes"],
        "Family": ["Appleblossom", "Bigheart", "Brightmoon", "Brushgather", "Cherrycheeks", "Copperkettle", "Deephollow", "Elderberry", "Fastfoot", "Fatrabbit", "Glenfellow", "Goldfound", "Goodbarrel", "Goodearth", "Greenbottle", "Greenleaf", "High-hill", "Hilltopple", "Hogcollar", "Honeypot", "Jamjar", "Kettlewhistle", "Leagallow", "Littlefoot", "Nimblefingers", "Porridgepot", "Quickstep", "Reedfellow", "Shadowquick", "Silvereyes", "Smoothhands", "Stonebridge", "Stoutbridge", "Stoutman", "Strongbones", "Sunmeadow", "Swiftwhistle", "Tallfellow", "Tealeaf", "Tenpenny", "Thistletop", "Thorngage", "Tosscobble", "Underbough", "Underfoot", "Warmwater", "Whispermouse", "Wildcloak", "Wildheart", "Wiseacre"]
    },
    "Hobgoblin": {
        "Female": ["Diitesh", "Ekhaas", "Jhazaal", "Khaar", "Kitaas", "Mekiis", "Razu", "Reirie", "Riila", "Senen", "Shaardat", "Tuura"],
        "Male": ["Aruget", "Biish", "Daavan", "Dagii", "Duulun", "Fenic", "Haruuc", "Iizan", "Jhezon", "Krakuul", "Kurac", "Lhurusk", "Mazaan", "Muuka", "Munta", "Nasaar", "Oraan", "Okaat", "Ruus", "Saabak", "Tasaam", "Taak", "Tariic", "Thuun", "Vanii", "Vanon", "Woshar"],
        "Family": ["Baaz", "Draet", "Draguus", "Gan\"duur", "Gantii Vus", "Ghaal Sehn", "Kuun", "Mbar\"ost", "Mur Talaan", "Nasaar", "Rhukaan Taash", "Shaart", "Thaar", "Uhl", "Volaar"]
    },
    "Human": {
        "Family": [
            "Lharaendo",
            "Mristar",
            "Wyndael",
            "Basha",
            "Dumein",
            "Jassan",
            "Khalid",
            "Mostana",
            "Pashar",
            "Rein",
            "Amblecrown",
            "Buckman",
            "Dundragon",
            "Evenwood",
            "Greycastle",
            "Tallstag",
            "Bersk",
            "Chernin",
            "Dotsk",
            "Kulenov",
            "Marsk",
            "Nemetsk",
            "Shemov",
            "Starag",
            "Archer",
            "Gareth",
            "Leed",
            "Kendrick",
            "Morgan",
            "Waters",
            "Chergoba",
            "Drazlad",
            "Tazyara",
            "Vargoba",
            "Stayankina",
            "Avhoste",
            "Darante",
            "Maurmeril",
            "Stamaraster",
            "Brightwood",
            "Helder",
            "Hornraven",
            "Lackman",
            "Stormwind",
            "Windrivver",
            "Datharathi",
            "Melpurvatta",
            "Nalambar",
            "Tiliputakas",
            "Ankhalab",
            "Anskuld",
            "Fezim",
            "Hahpet",
            "Nathandem",
            "Sepret",
            "Uuthrakt",
            "Dashkev",
            "Hargroth",
            "Laboda",
            "Lackman",
            "Stonar",
            "Stormwind",
            "Sulyma",
            "Chergoba",
            "Dyernina",
            "Iltazyara",
            "Murnyethara",
            "Stayanoga",
            "Ulmokina",
            "Cor",
            "Marak",
            "Laumee",
            "Harr",
            "Moq",
            "Qo",
            "Harr",
            "Woraw",
            "Tarak",
            "Chien",
            "Huang",
            "Kao",
            "Kung",
            "Lao",
            "Ling",
            "Mei",
            "Pin",
            "Shin",
            "Sum",
            "Tan",
            "Wan",
            "Agosto",
            "Astorio",
            "Calabra",
            "Domine",
            "Falone",
            "Marivaldi",
            "Pisacar",
            "Ramondo"
        ],
        "Male": [
            "Houn",
            "Rhivaun",
            "Umbril",
            "Xaemar",
            "Zeltaebar",
            "Aali",
            "Rashid",
            "Tahnon",
            "Tanzim",
            "Whalide",
            "Aseir",
            "Bardeid",
            "Haseid",
            "Khemed",
            "Mehmen",
            "Sudeiman",
            "Zasheir",
            "Darvin",
            "Dorn",
            "Evendur",
            "Gorstag",
            "Grim",
            "Helm",
            "Malark",
            "Morn",
            "Randal",
            "Stedd",
            "Bor",
            "Fodel",
            "Glar",
            "Grigor",
            "Igan",
            "Ivor",
            "Kosef",
            "Mival",
            "Orel",
            "Pavel",
            "Sergor",
            "Artur",
            "Bern",
            "Colin",
            "Manfred",
            "Tristan",
            "Boriv",
            "Gardar",
            "Madevik",
            "Vlad",
            "Aldym",
            "Chand",
            "Meleghost",
            "Presmer",
            "Sandrue",
            "Uregaunt",
            "Ander",
            "Blath",
            "Bran",
            "Frath",
            "Geth",
            "Lander",
            "Luth",
            "Malcer",
            "Stor",
            "Taman",
            "Urth",
            "Charva",
            "Duma",
            "Hukir",
            "Jama",
            "Pradir",
            "Sikhil",
            "Aoth",
            "Bareris",
            "Ehput-Ki",
            "Kethoth",
            "Mumed",
            "Ramas",
            "So-Kehur",
            "Thazar-De",
            "Urhur",
            "Avan",
            "Ostaram",
            "Petro",
            "Stor",
            "Taman",
            "Thalaman",
            "Urth",
            "Borivik",
            "Faurgar",
            "Jandar",
            "Kanithar",
            "Madislak",
            "Ralmevik",
            "Shaumar",
            "Vladislak",
            "Awar",
            "Cohis",
            "Damota",
            "Gewar",
            "Hapah",
            "Laskaw",
            "Senesaw",
            "Tokhis",
            "An",
            "Chen",
            "Chi",
            "Fai",
            "Jiang",
            "Jun",
            "Lian",
            "Long",
            "Meng",
            "On",
            "Shan",
            "Shui",
            "Wen",
            "Atlan",
            "Bayar",
            "Chingis",
            "Chinua",
            "Mongke",
            "Temur",
            "Anton",
            "Diero",
            "Marcon",
            "Pieron",
            "Rimardo",
            "Romero",
            "Salazar",
            "Umbero",
            "Amak",
            "Chu",
            "Imnek",
            "Kanut",
            "Siku"
        ],
        "Female": [
            "Glouris",
            "Maeve",
            "Sevaera",
            "Xaemarra",
            "Zraela",
            "Aisha",
            "Farah",
            "Nura",
            "Rashida",
            "Zalebyeh",
            "Atala",
            "Ceidil",
            "Hama",
            "Jasmal",
            "Meilil",
            "Seipora",
            "Yasheira",
            "Zasheida",
            "Arveene",
            "Esvele",
            "Jhessail",
            "Kerri",
            "Lureene",
            "Miri",
            "Rowan",
            "Shandri",
            "Tessele",
            "Alethra",
            "Kara",
            "Katernin",
            "Mara",
            "Natali",
            "Olma",
            "Tana",
            "Zora",
            "Alicia",
            "Gennifer",
            "Meridith",
            "Elaine",
            "Olivia",
            "Varra",
            "Ulmarra",
            "Imza",
            "Navarra",
            "Yuldra",
            "Aithe",
            "Chalan",
            "Oloma",
            "Phaele",
            "Sarade",
            "Amafrey",
            "Betha",
            "Cefrey",
            "Kethra",
            "Mara",
            "Olga",
            "Silifrey",
            "Westra",
            "Apret",
            "Bask",
            "Fanul",
            "Mokat",
            "Nismet",
            "Ril",
            "Arizima",
            "Chathi",
            "Nephis",
            "Nulara",
            "Murithi",
            "Sefris",
            "Thola",
            "Umara",
            "Zolis",
            "Anva",
            "Dasha",
            "Dima",
            "Olga",
            "Westra",
            "Zlatara",
            "Fyevarra",
            "Hulmarra",
            "Immith",
            "Imzel",
            "Navarra",
            "Shevarra",
            "Tammith",
            "Yuldra",
            "Anet",
            "Bes",
            "Idim",
            "Lenet",
            "Moqem",
            "Neghet",
            "Sihvet",
            "Bai",
            "Chao",
            "Jia",
            "Lei",
            "Mei",
            "Qiao",
            "Shui",
            "Tai",
            "Bolormaa",
            "Bortai",
            "Erdene",
            "Naran",
            "Ulutiun",
            "Balama",
            "Dona",
            "Faila",
            "Jalana",
            "Luisa",
            "Marta",
            "Quara",
            "Selise",
            "Vonda",
            "Akna",
            "Chena",
            "Kaya",
            "Sedna",
            "Ublereak"
        ]
    },
    "Infernal": {
        "Female": ["Akta", "Anakis", "Armara", "Astaro", "Aym", "Beleth", "Bryseis", "Bune", "Criella", "Damaia", "Decarabia", "Ea", "Gadreel", "Gomory", "Hecat", "Ishte", "Jezebeth", "Kali", "Kallista", "Kasdeya", "Lerissa", "Lilith", "Makaria", "Manea", "Markosian", "Mastema", "Naamah", "Nemeia", "Nija", "Orianna", "Osah", "Phelaia", "Prosperine", "Purah", "Pyra", "Rieta", "Ronobe", "Ronwe", "Seddit", "Seere", "Sekhmet", "Semyaza", "Shava", "Shax", "Sorath", "Uzza", "Vapula", "Vepar", "Verin"],
        "Male": ["Abad", "Ahrim", "Akmen", "Amnon", "Andram", "Balam", "Barakas", "Bathin", "Caim", "Chem", "Cimer", "Cressel", "Damakos", "Ekemon", "Euron", "Fenriz", "Forcas", "Habor", "Iados", "Kairon", "Leucis", "Mamnen", "Mantus", "Marbas", "Melech", "Merihim", "Modean", "Mordai", "Mormo", "Morthos", "Nicor", "Nirgel", "Oriax", "Paymon", "Pelaios", "Purson", "Qemuel", "Raam", "Rimmon", "Sammal", "Skamos", "Tethren", "Thamuz", "Therai", "Valafar", "Vassago", "Xappan", "Zepar", "Zephan"]
    },
    "Kalashtar": {
        "Nickname": ["Coratash", "Dalavash", "Dolishara", "Halakosh", "Khoratari", "Koratana", "Lanhareth", "Molavakri", "Nevitash", "Sorashana", "Torashtai", "Valakhad", "Vishara"]
    },
    "Kenku": {
        "Nickname": ["Smasher", "Familyger", "Slicer", "Basher", "Rat Scratch", "Whistler", "Mouser", "Growler", "Sail Snap", "Hammerer", "Cutter"]
    },
    "Kobold": {
        "Female": ["Adriaak", "Harkail", "Neeral", "Ozula", "Poro", "Saassraa", "Tarka"],
        "Male": ["Draahzin", "Eadoo", "Ipmeerk", "Jamada", "Kib", "Makroo", "Olp", "Yraalik", "Zornesk"]
    },
    "Lizardfolk": {
        "Nickname": ["Achuak (Green)", "Aryte (War)", "Bae-shra (Animal)", "Darastrix (Dragon)", "Garurt (Axe)", "Irhtos (Secret)", "Jhank (Hammer)", "Kepesk (Storm)", "Kethend (Gem)", "Korth (Danger)", "Kosj (Small)", "Kothar (Demon)", "Li-trix (Armor)", "Mirik (Song)", "Othokent (Smart)", "Sauriv (Eye)", "Throden (Many)", "Thurkear (Night)", "Usk (Iron)", "Valignat (Burn)", "Vargach (Battle)", "Verthica (Mountain)", "Vutha (Black)", "Vyth (Steel)"]
    },
    "Minotaur": {
        "Female": ["Duula", "Esteru", "Hester", "Kuonu", "Loodra", "Oestra", "Raastred", "Seestra", "Uovana", "Weoren"],
        "Male": ["Asteron", "Bjorkus", "Codrus", "Foostus", "Goeban", "Jak", "Minron", "Noostoron", "Podrus", "Terios"]
    },
    "Half-Orc": {
        "Female": ["Arha", "Baggi", "Bendoo", "Bilga", "Brakka", "Creega", "Drenna", "Ekk", "Ernen", "Engong", "Fistula", "Caaki", "Gorga", "Grai", "Greeba", "Grigi", "Gynk", "Hrathy", "Huru", "Ilga", "Kabbarg", "Kansif", "Lagazi", "Lezre", "Murgen", "Murook", "Myev", "Nagrette", "Neega", "Nella", "Nogu", "Oolah", "Ootah", "Ovak", "Ownka", "Puyet", "Reeza", "Shautha", "Silgre", "Sutha", "Tagga", "Tawar", "Tomph", "Ubada", "Vanchu", "Vola", "Volen", "Vorka", "Yevelda", "Zagga"],
        "Male": ["Agran", "Braak", "Brug", "Cagak", "Dench", "Dorn", "Dren", "Druuk", "Feng", "Gell", "Gnarsh", "Grumbar", "Hagren", "Henk", "Hogar", "Holg", "Imsh", "Karash", "Karg", "Keth", "Korag", "Krusk", "Lubash", "Megged", "Mhurren", "Mord", "Morg", "Nil", "Nybarg", "Odorr", "Ohr", "Rendar", "Resh", "Ront", "Rrath", "Sark", "Scrag", "Sheggen", "Shump", "Tanglar", "Tarak", "Thar", "Thokk", "Trag", "Ugarth", "Varg", "Vilberg", "Yurk", "Zed"]
    },
    "Orc": {
        "Female": ["Arha", "Baggi", "Bendoo", "Bilga", "Brakka", "Creega", "Drenna", "Ekk", "Ernen", "Engong", "Fistula", "Caaki", "Gorga", "Grai", "Greeba", "Grigi", "Gynk", "Hrathy", "Huru", "Ilga", "Kabbarg", "Kansif", "Lagazi", "Lezre", "Murgen", "Murook", "Myev", "Nagrette", "Neega", "Nella", "Nogu", "Oolah", "Ootah", "Ovak", "Ownka", "Puyet", "Reeza", "Shautha", "Silgre", "Sutha", "Tagga", "Tawar", "Tomph", "Ubada", "Vanchu", "Vola", "Volen", "Vorka", "Yevelda", "Zagga"],
        "Male": ["Agran", "Braak", "Brug", "Cagak", "Dench", "Dorn", "Dren", "Druuk", "Feng", "Gell", "Gnarsh", "Grumbar", "Hagren", "Henk", "Hogar", "Holg", "Imsh", "Karash", "Karg", "Keth", "Korag", "Krusk", "Lubash", "Megged", "Mhurren", "Mord", "Morg", "Nil", "Nybarg", "Odorr", "Ohr", "Rendar", "Resh", "Ront", "Rrath", "Sark", "Scrag", "Sheggen", "Shump", "Tanglar", "Tarak", "Thar", "Thokk", "Trag", "Ugarth", "Varg", "Vilberg", "Yurk", "Zed"]
    },
    "Quori": {
        "Female": ["Ashana", "Ashtai", "Ishara", "Nari", "Tana", "Tari", "Vakri"],
        "Male": ["Hareth", "Khad", "Kosh", "Melk", "Tash", "Ulad", "Vash"]
    },
    "Shifter": {
        "Nickname": ["Badger", "Bear", "Cat", "Fang", "Grace", "Grim", "Moon", "Rain", "Red", "Scar", "Stripe", "Swift", "Talon", "Whiskers", "Wolf"]
    },
    "Tabaxi": {
        "Name": ["Cloud on the Mountaintop", "Five Timber", "Jade Shoe", "Left-Handed Hummingbird", "Seven Thundercloud", "Skirt of Snakes", "Smoking Mirror"],
        "Family": ["Bright Cliffs", "Distant Rain", "Mountain Tree", "Rumbling River", "Snoring Mountain"]
    },
    "Tortle": {
        "Nickname": ["Baka", "Damu", "Gar", "Gura", "Ini", "Jappa", "Kinlek", "Krull", "Lim", "Lop", "Nortle", "Nulka", "Olo", "Ploqwat", "Quee", "Queg", "Quott", "Sunny", "Tibor", "Ubo", "Uhok", "Wabu", "Xelbuk", "Xopa", "Yog"]
    },
    "Triton": {
        "Female": ["Aryn", "Belthyn", "Duthyn", "Feloren", "Otanyn", "Shalryn", "Vlaryn", "Wolyn"],
        "Male": ["Corus", "Delnis", "Jhimas", "Keros", "Mo-los", "Nalos", "Vodos", "Zunis"],
        "Family": ["Ahlorsath", "Pumanath", "Vuuvaxath"]
    },
    "Virtue": {
        "Nickname": ["Ambition", "Art", "Carrion", "Chant", "Creed", "Death", "Debauchery", "Despair", "Doom", "Doubt", "Dread", "Ecstacy", "Ennui", "Entropy", "Excellence", "Fear", "Glory", "Gluttony", "Grief", "Hate", "Hope", "Horror", "Ideal", "Ignominy", "Laughter", "Love", "Lust", "Mayhem", "Mockery", "Murder", "Muse", "Music", "Mystery", "Nowhere", "Open", "Pain", "Passion", "Poetry", "Quest", "Random", "Reverence", "Revulsion", "Sorrow", "Temerity", "Torment", "Tragedy", "Vice", "Virtue", "Weary", "Wit"]
    },
    "Warforged": {
        "Nickname": ["Anchor", "Banner", "Bastion", "Blade", "Blue", "Bow", "Church", "Crunch", "Crystal", "Dagger", "Dent", "Five", "Glaive", "Hammer", "Iron", "Lucky", "Mace", "Pants", "Pierce", "Red", "Rusty", "Scout", "Seven", "Shield", "Slash", "Smith", "Spike", "Stone", "Temple", "Vault", "Wall", "Wood"]
    },
    "Yuan-Ti": {
        "Nickname": ["Asutali", "Eztli", "Hessatal", "Hitotee", "Issahu", "Itstli", "Manuya", "Meztli", "Nesalli", "Otleh", "Shalkashlah", "Sisava", "Sitlali", "Soakosh", "Ssimalli", "Suisatal", "Talash", "Teoshi", "Yaotal", "Zihu"]
    },
    "Yuan-Ti Pureblood": {
        "Nickname": ["Asutali", "Eztli", "Hessatal", "Hitotee", "Issahu", "Itstli", "Manuya", "Meztli", "Nesalli", "Otleh", "Shalkashlah", "Sisava", "Sitlali", "Soakosh", "Ssimalli", "Suisatal", "Talash", "Teoshi", "Yaotal", "Zihu"]
    },
    "Loxodon": {
        "Female": ["Ajj", "Boja", "Dancu", "Dooja", "Elyuja", "Fanoor", "Irij", "Jasoo", "Katrun", "Lyooda", "Mayja", "Radu", "Shuja", "Soofya", "Totoor", "Verij", "Vesmova", "Yoolna", "Zarij", "Zoorja"],
        "Male": ["Bayul", "Berov", "Brooj", "Chedumov", "Dobrun", "Droozh", "Golomov", "Heruj", "Ilromov", "Kel", "Nikoom", "Ondros", "Radomov", "Svetel", "Tamuj", "Throom", "Vasool"]
    },
    "Firbolg": {
        "Female": ["Azi", "Barvisa", "Brazia", "Direll", "Fainn", "Griya", "Hallia", "Katrille", "Kovel", "Lilla", "Mirela", "Morai", "Nedress", "Ossya", "Pierenn", "Roya", "Sestri", "Triel", "Uzana", "Yaraghiya", "Zlovol"],
        "Male": ["Aglar", "Bellin", "Dallid", "Firellan", "Kavin", "Koplony", "Lomar", "Mathvan", "Modar", "Nebun", "Nhillosh", "Nitt", "Otrovac", "Ovlan", "Pelener", "Rill", "Trivaz", "Uldin", "Yolov", "Zataz"]
    },
    "Vedalken": {
        "Female": ["Azi", "Barvisa", "Brazia", "Direll", "Fainn", "Griya", "Hallia", "Katrille", "Kovel", "Lilla", "Mirela", "Morai", "Nedress", "Ossya", "Pierenn", "Roya", "Sestri", "Triel", "Uzana", "Yaraghiya", "Zlovol"],
        "Male": ["Aglar", "Bellin", "Dallid", "Firellan", "Kavin", "Koplony", "Lomar", "Mathvan", "Modar", "Nebun", "Nhillosh", "Nitt", "Otrovac", "Ovlan", "Pelener", "Rill", "Trivaz", "Uldin", "Yolov", "Zataz"]
    },
    "Viashino": {
        "Nickname": ["Aun", "Bay", "Bassisk", "Cresh", "Din", "Essek", "Fiksh", "Gyan", "Hsiska", "Illati", "Izka", "Kyri", "Liszik", "Maush", "Nyoser", "Ossanash", "Shekess", "Skellek", "Szil", "Tenk", "Tzia", "Villi", "Wyoryn", "Yom", "Ztash"]
    }
}